CLSA/CLSA.sim/sim_1/behav/xsim/simulate.log
Time resolution is 1 ps
A = 0000000000000000000000000000000000000000000000000000000000000000, B = 0000000000000000000000000000000000000000000000000000000000000000, Cin = 0, S = xxxxxxxxxxxxxxxxxxxxxxxxxxxxxxxxxxxxxxxxxxxxxxxxxxxxxxxxxxxxxxxx, Cout = x
A = 0000000000000000000000000000000000000000000000000000000000000000, B = 0000000000000000000000000000000000000000000000000000000000000000, Cin = 0, S = 0000000000000000000000000000000000000000000000000000000000000000, Cout = 0
A = 0000000000000000000000000000000000000000000000000000000000000000, B = 0000000000000000000000000000000000000000000000000000000000000000, Cin = 1, S = 0000000000000000000000000000000000000000000000000000000000000001, Cout = 0
A = 0000000000000000000000000000000000000000000000000000000000000000, B = 0000000000000000000000000000000000000000000000000000000000000001, Cin = 0, S = 0000000000000000000000000000000000000000000000000000000000000001, Cout = 0
A = 0000000000000000000000000000000000000000000000000000000000000000, B = 0000000000000000000000000000000000000000000000000000000000000001, Cin = 1, S = 0000000000000000000000000000000000000000000000000000000000000010, Cout = 0
A = 0000000000000000000000000000000000000000000000000000000000000001, B = 0000000000000000000000000000000000000000000000000000000000000010, Cin = 0, S = 0000000000000000000000000000000000000000000000000000000000000011, Cout = 0
A = 0000000000000000000000000000000000000000000000000000000000000001, B = 0000000000000000000000000000000000000000000000000000000000000010, Cin = 1, S = 0000000000000000000000000000000000000000000000000000000000000100, Cout = 0
A = 0000000000000000000000000000000000000000000000000000000000000001, B = 0000000000000000000000000000000000000000000000000000000000000011, Cin = 0, S = 0000000000000000000000000000000000000000000000000000000000000100, Cout = 0
A = 0000000000000000000000000000000000000000000000000000000000000001, B = 0000000000000000000000000000000000000000000000000000000000000011, Cin = 1, S = 0000000000000000000000000000000000000000000000000000000000000101, Cout = 0
A = 0000000000000000000000000000000000000000000000000000000000000010, B = 0000000000000000000000000000000000000000000000000000000000000100, Cin = 0, S = 0000000000000000000000000000000000000000000000000000000000000110, Cout = 0
A = 0000000000000000000000000000000000000000000000000000000000000010, B = 0000000000000000000000000000000000000000000000000000000000000100, Cin = 1, S = 0000000000000000000000000000000000000000000000000000000000000111, Cout = 0
A = 0000000000000000000000000000000000000000000000000000000000000010, B = 0000000000000000000000000000000000000000000000000000000000000101, Cin = 0, S = 0000000000000000000000000000000000000000000000000000000000000111, Cout = 0
A = 0000000000000000000000000000000000000000000000000000000000000010, B = 0000000000000000000000000000000000000000000000000000000000000101, Cin = 1, S = 0000000000000000000000000000000000000000000000000000000000001000, Cout = 0
A = 0000000000000000000000000000000000000000000000000000000000000011, B = 0000000000000000000000000000000000000000000000000000000000000110, Cin = 0, S = 0000000000000000000000000000000000000000000000000000000000001001, Cout = 0
A = 0000000000000000000000000000000000000000000000000000000000000011, B = 0000000000000000000000000000000000000000000000000000000000000110, Cin = 1, S = 0000000000000000000000000000000000000000000000000000000000001010, Cout = 0
A = 0000000000000000000000000000000000000000000000000000000000000011, B = 0000000000000000000000000000000000000000000000000000000000000111, Cin = 0, S = 0000000000000000000000000000000000000000000000000000000000001010, Cout = 0
A = 0000000000000000000000000000000000000000000000000000000000000011, B = 0000000000000000000000000000000000000000000000000000000000000111, Cin = 1, S = 0000000000000000000000000000000000000000000000000000000000001011, Cout = 0
A = 0000000000000000000000000000000000000000000000000000000000000100, B = 0000000000000000000000000000000000000000000000000000000000001000, Cin = 0, S = 0000000000000000000000000000000000000000000000000000000000001100, Cout = 0
A = 0000000000000000000000000000000000000000000000000000000000000100, B = 0000000000000000000000000000000000000000000000000000000000001000, Cin = 1, S = 0000000000000000000000000000000000000000000000000000000000001101, Cout = 0
A = 0000000000000000000000000000000000000000000000000000000000000100, B = 0000000000000000000000000000000000000000000000000000000000001001, Cin = 0, S = 0000000000000000000000000000000000000000000000000000000000001101, Cout = 0
A = 0000000000000000000000000000000000000000000000000000000000000100, B = 0000000000000000000000000000000000000000000000000000000000001001, Cin = 1, S = 0000000000000000000000000000000000000000000000000000000000001110, Cout = 0
A = 0000000000000000000000000000000000000000000000000000000000000101, B = 0000000000000000000000000000000000000000000000000000000000001010, Cin = 0, S = 0000000000000000000000000000000000000000000000000000000000001111, Cout = 0
A = 0000000000000000000000000000000000000000000000000000000000000101, B = 0000000000000000000000000000000000000000000000000000000000001010, Cin = 1, S = 0000000000000000000000000000000000000000000000000000000000010000, Cout = 0
A = 0000000000000000000000000000000000000000000000000000000000000101, B = 0000000000000000000000000000000000000000000000000000000000001011, Cin = 0, S = 0000000000000000000000000000000000000000000000000000000000010000, Cout = 0
A = 0000000000000000000000000000000000000000000000000000000000000101, B = 0000000000000000000000000000000000000000000000000000000000001011, Cin = 1, S = 0000000000000000000000000000000000000000000000000000000000010001, Cout = 0
A = 0000000000000000000000000000000000000000000000000000000000000110, B = 0000000000000000000000000000000000000000000000000000000000001100, Cin = 0, S = 0000000000000000000000000000000000000000000000000000000000010010, Cout = 0
A = 0000000000000000000000000000000000000000000000000000000000000110, B = 0000000000000000000000000000000000000000000000000000000000001100, Cin = 1, S = 0000000000000000000000000000000000000000000000000000000000010011, Cout = 0
A = 0000000000000000000000000000000000000000000000000000000000000110, B = 0000000000000000000000000000000000000000000000000000000000001101, Cin = 0, S = 0000000000000000000000000000000000000000000000000000000000010011, Cout = 0
A = 0000000000000000000000000000000000000000000000000000000000000110, B = 0000000000000000000000000000000000000000000000000000000000001101, Cin = 1, S = 0000000000000000000000000000000000000000000000000000000000010100, Cout = 0
A = 0000000000000000000000000000000000000000000000000000000000000111, B = 0000000000000000000000000000000000000000000000000000000000001110, Cin = 0, S = 0000000000000000000000000000000000000000000000000000000000010101, Cout = 0
A = 0000000000000000000000000000000000000000000000000000000000000111, B = 0000000000000000000000000000000000000000000000000000000000001110, Cin = 1, S = 0000000000000000000000000000000000000000000000000000000000010110, Cout = 0
A = 0000000000000000000000000000000000000000000000000000000000000111, B = 0000000000000000000000000000000000000000000000000000000000001111, Cin = 0, S = 0000000000000000000000000000000000000000000000000000000000010110, Cout = 0
A = 0000000000000000000000000000000000000000000000000000000000000111, B = 0000000000000000000000000000000000000000000000000000000000001111, Cin = 1, S = 0000000000000000000000000000000000000000000000000000000000010111, Cout = 0
A = 0000000000000000000000000000000000000000000000000000000000001000, B = 0000000000000000000000000000000000000000000000000000000000010000, Cin = 0, S = 0000000000000000000000000000000000000000000000000000000000011000, Cout = 0
A = 0000000000000000000000000000000000000000000000000000000000001000, B = 0000000000000000000000000000000000000000000000000000000000010000, Cin = 1, S = 0000000000000000000000000000000000000000000000000000000000011001, Cout = 0
A = 0000000000000000000000000000000000000000000000000000000000001000, B = 0000000000000000000000000000000000000000000000000000000000010001, Cin = 0, S = 0000000000000000000000000000000000000000000000000000000000011001, Cout = 0
A = 0000000000000000000000000000000000000000000000000000000000001000, B = 0000000000000000000000000000000000000000000000000000000000010001, Cin = 1, S = 0000000000000000000000000000000000000000000000000000000000011010, Cout = 0
A = 0000000000000000000000000000000000000000000000000000000000001001, B = 0000000000000000000000000000000000000000000000000000000000010010, Cin = 0, S = 0000000000000000000000000000000000000000000000000000000000011011, Cout = 0
A = 0000000000000000000000000000000000000000000000000000000000001001, B = 0000000000000000000000000000000000000000000000000000000000010010, Cin = 1, S = 0000000000000000000000000000000000000000000000000000000000011100, Cout = 0
A = 0000000000000000000000000000000000000000000000000000000000001001, B = 0000000000000000000000000000000000000000000000000000000000010011, Cin = 0, S = 0000000000000000000000000000000000000000000000000000000000011100, Cout = 0
A = 0000000000000000000000000000000000000000000000000000000000001001, B = 0000000000000000000000000000000000000000000000000000000000010011, Cin = 1, S = 0000000000000000000000000000000000000000000000000000000000011101, Cout = 0
A = 0000000000000000000000000000000000000000000000000000000000001010, B = 0000000000000000000000000000000000000000000000000000000000010100, Cin = 0, S = 0000000000000000000000000000000000000000000000000000000000011110, Cout = 0
A = 0000000000000000000000000000000000000000000000000000000000001010, B = 0000000000000000000000000000000000000000000000000000000000010100, Cin = 1, S = 0000000000000000000000000000000000000000000000000000000000011111, Cout = 0
A = 0000000000000000000000000000000000000000000000000000000000001010, B = 0000000000000000000000000000000000000000000000000000000000010101, Cin = 0, S = 0000000000000000000000000000000000000000000000000000000000011111, Cout = 0
A = 0000000000000000000000000000000000000000000000000000000000001010, B = 0000000000000000000000000000000000000000000000000000000000010101, Cin = 1, S = 0000000000000000000000000000000000000000000000000000000000100000, Cout = 0
A = 0000000000000000000000000000000000000000000000000000000000001011, B = 0000000000000000000000000000000000000000000000000000000000010110, Cin = 0, S = 0000000000000000000000000000000000000000000000000000000000100001, Cout = 0
A = 0000000000000000000000000000000000000000000000000000000000001011, B = 0000000000000000000000000000000000000000000000000000000000010110, Cin = 1, S = 0000000000000000000000000000000000000000000000000000000000100010, Cout = 0
A = 0000000000000000000000000000000000000000000000000000000000001011, B = 0000000000000000000000000000000000000000000000000000000000010111, Cin = 0, S = 0000000000000000000000000000000000000000000000000000000000100010, Cout = 0
A = 0000000000000000000000000000000000000000000000000000000000001011, B = 0000000000000000000000000000000000000000000000000000000000010111, Cin = 1, S = 0000000000000000000000000000000000000000000000000000000000100011, Cout = 0
A = 0000000000000000000000000000000000000000000000000000000000001100, B = 0000000000000000000000000000000000000000000000000000000000011000, Cin = 0, S = 0000000000000000000000000000000000000000000000000000000000100100, Cout = 0
A = 0000000000000000000000000000000000000000000000000000000000001100, B = 0000000000000000000000000000000000000000000000000000000000011000, Cin = 1, S = 0000000000000000000000000000000000000000000000000000000000100101, Cout = 0
$finish called at time : 50 ns : File "C:/Users/User/Documents/Projects/CLSA/CLSA.srcs/sim_1/new/CSLA_64bit_tb.v" Line 49
