SQRT_CLSA/SQRT_CLSA.sim/sim_1/behav/xsim/simulate.log
Time resolution is 1 ps
A = 0000000000000000000000000000000000000000000000000000000000000000, B = 0000000000000000000000000000000000000000000000000000000000000000, Cin = 0, S = x, Cout = xxxxxxxxxxxxxxxxxxxxxxxxxxxxxxxxxxxxxxxxxxxxxxxxxxxxxxxxxxxxxxxx
A = 0000000000000000000000000000000000000000000000000000000000000000, B = 0000000000000000000000000000000000000000000000000000000000000000, Cin = 0, S = 0, Cout = 0000000000000000000000000000000000000000000000000000000000000000
A = 0000000000000000000000000000000000000000000000000000000000000000, B = 0000000000000000000000000000000000000000000000000000000000000000, Cin = 1, S = 0, Cout = 0000000000000000000000000000000000000000000000000000000000000001
A = 0000000000000000000000000000000000000000000000000000000000000000, B = 0000000000000000000000000000000000000000000000000000000000000001, Cin = 0, S = 0, Cout = 0000000000000000000000000000000000000000000000000000000000000001
A = 0000000000000000000000000000000000000000000000000000000000000000, B = 0000000000000000000000000000000000000000000000000000000000000001, Cin = 1, S = 0, Cout = 0000000000000000000000000000000000000000000000000000000000000010
A = 0000000000000000000000000000000000000000000000000000000000000001, B = 0000000000000000000000000000000000000000000000000000000000000010, Cin = 0, S = 0, Cout = 0000000000000000000000000000000000000000000000000000000000000011
A = 0000000000000000000000000000000000000000000000000000000000000001, B = 0000000000000000000000000000000000000000000000000000000000000010, Cin = 1, S = 0, Cout = 0000000000000000000000000000000000000000000000000000000000000100
A = 0000000000000000000000000000000000000000000000000000000000000001, B = 0000000000000000000000000000000000000000000000000000000000000011, Cin = 0, S = 0, Cout = 0000000000000000000000000000000000000000000000000000000000000100
A = 0000000000000000000000000000000000000000000000000000000000000001, B = 0000000000000000000000000000000000000000000000000000000000000011, Cin = 1, S = 0, Cout = 0000000000000000000000000000000000000000000000000000000000000101
A = 0000000000000000000000000000000000000000000000000000000000000010, B = 0000000000000000000000000000000000000000000000000000000000000100, Cin = 0, S = 0, Cout = 0000000000000000000000000000000000000000000000000000000000000110
A = 0000000000000000000000000000000000000000000000000000000000000010, B = 0000000000000000000000000000000000000000000000000000000000000100, Cin = 1, S = 0, Cout = 0000000000000000000000000000000000000000000000000000000000000111
A = 0000000000000000000000000000000000000000000000000000000000000010, B = 0000000000000000000000000000000000000000000000000000000000000101, Cin = 0, S = 0, Cout = 0000000000000000000000000000000000000000000000000000000000000111
A = 0000000000000000000000000000000000000000000000000000000000000010, B = 0000000000000000000000000000000000000000000000000000000000000101, Cin = 1, S = 0, Cout = 0000000000000000000000000000000000000000000000000000000000001000
A = 0000000000000000000000000000000000000000000000000000000000000011, B = 0000000000000000000000000000000000000000000000000000000000000110, Cin = 0, S = 0, Cout = 0000000000000000000000000000000000000000000000000000000000001001
A = 0000000000000000000000000000000000000000000000000000000000000011, B = 0000000000000000000000000000000000000000000000000000000000000110, Cin = 1, S = 0, Cout = 0000000000000000000000000000000000000000000000000000000000001010
A = 0000000000000000000000000000000000000000000000000000000000000011, B = 0000000000000000000000000000000000000000000000000000000000000111, Cin = 0, S = 0, Cout = 0000000000000000000000000000000000000000000000000000000000001010
A = 0000000000000000000000000000000000000000000000000000000000000011, B = 0000000000000000000000000000000000000000000000000000000000000111, Cin = 1, S = 0, Cout = 0000000000000000000000000000000000000000000000000000000000001011
A = 0000000000000000000000000000000000000000000000000000000000000100, B = 0000000000000000000000000000000000000000000000000000000000001000, Cin = 0, S = 0, Cout = 0000000000000000000000000000000000000000000000000000000000001100
A = 0000000000000000000000000000000000000000000000000000000000000100, B = 0000000000000000000000000000000000000000000000000000000000001000, Cin = 1, S = 0, Cout = 0000000000000000000000000000000000000000000000000000000000001101
A = 0000000000000000000000000000000000000000000000000000000000000100, B = 0000000000000000000000000000000000000000000000000000000000001001, Cin = 0, S = 0, Cout = 0000000000000000000000000000000000000000000000000000000000001101
A = 0000000000000000000000000000000000000000000000000000000000000100, B = 0000000000000000000000000000000000000000000000000000000000001001, Cin = 1, S = 0, Cout = 0000000000000000000000000000000000000000000000000000000000001110
A = 0000000000000000000000000000000000000000000000000000000000000101, B = 0000000000000000000000000000000000000000000000000000000000001010, Cin = 0, S = 0, Cout = 0000000000000000000000000000000000000000000000000000000000001111
A = 0000000000000000000000000000000000000000000000000000000000000101, B = 0000000000000000000000000000000000000000000000000000000000001010, Cin = 1, S = 0, Cout = 0000000000000000000000000000000000000000000000000000000000010000
A = 0000000000000000000000000000000000000000000000000000000000000101, B = 0000000000000000000000000000000000000000000000000000000000001011, Cin = 0, S = 0, Cout = 0000000000000000000000000000000000000000000000000000000000010000
A = 0000000000000000000000000000000000000000000000000000000000000101, B = 0000000000000000000000000000000000000000000000000000000000001011, Cin = 1, S = 0, Cout = 0000000000000000000000000000000000000000000000000000000000010001
A = 0000000000000000000000000000000000000000000000000000000000000110, B = 0000000000000000000000000000000000000000000000000000000000001100, Cin = 0, S = 0, Cout = 0000000000000000000000000000000000000000000000000000000000010010
A = 0000000000000000000000000000000000000000000000000000000000000110, B = 0000000000000000000000000000000000000000000000000000000000001100, Cin = 1, S = 0, Cout = 0000000000000000000000000000000000000000000000000000000000010011
A = 0000000000000000000000000000000000000000000000000000000000000110, B = 0000000000000000000000000000000000000000000000000000000000001101, Cin = 0, S = 0, Cout = 0000000000000000000000000000000000000000000000000000000000010011
A = 0000000000000000000000000000000000000000000000000000000000000110, B = 0000000000000000000000000000000000000000000000000000000000001101, Cin = 1, S = 0, Cout = 0000000000000000000000000000000000000000000000000000000000010100
A = 0000000000000000000000000000000000000000000000000000000000000111, B = 0000000000000000000000000000000000000000000000000000000000001110, Cin = 0, S = 0, Cout = 0000000000000000000000000000000000000000000000000000000000010101
A = 0000000000000000000000000000000000000000000000000000000000000111, B = 0000000000000000000000000000000000000000000000000000000000001110, Cin = 1, S = 0, Cout = 0000000000000000000000000000000000000000000000000000000000010110
A = 0000000000000000000000000000000000000000000000000000000000000111, B = 0000000000000000000000000000000000000000000000000000000000001111, Cin = 0, S = 0, Cout = 0000000000000000000000000000000000000000000000000000000000010110
A = 0000000000000000000000000000000000000000000000000000000000000111, B = 0000000000000000000000000000000000000000000000000000000000001111, Cin = 1, S = 0, Cout = 0000000000000000000000000000000000000000000000000000000000010111
A = 0000000000000000000000000000000000000000000000000000000000001000, B = 0000000000000000000000000000000000000000000000000000000000010000, Cin = 0, S = 0, Cout = 0000000000000000000000000000000000000000000000000000000000011000
A = 0000000000000000000000000000000000000000000000000000000000001000, B = 0000000000000000000000000000000000000000000000000000000000010000, Cin = 1, S = 0, Cout = 0000000000000000000000000000000000000000000000000000000000011001
A = 0000000000000000000000000000000000000000000000000000000000001000, B = 0000000000000000000000000000000000000000000000000000000000010001, Cin = 0, S = 0, Cout = 0000000000000000000000000000000000000000000000000000000000011001
A = 0000000000000000000000000000000000000000000000000000000000001000, B = 0000000000000000000000000000000000000000000000000000000000010001, Cin = 1, S = 0, Cout = 0000000000000000000000000000000000000000000000000000000000011010
A = 0000000000000000000000000000000000000000000000000000000000001001, B = 0000000000000000000000000000000000000000000000000000000000010010, Cin = 0, S = 0, Cout = 0000000000000000000000000000000000000000000000000000000000011011
A = 0000000000000000000000000000000000000000000000000000000000001001, B = 0000000000000000000000000000000000000000000000000000000000010010, Cin = 1, S = 0, Cout = 0000000000000000000000000000000000000000000000000000000000011100
A = 0000000000000000000000000000000000000000000000000000000000001001, B = 0000000000000000000000000000000000000000000000000000000000010011, Cin = 0, S = 0, Cout = 0000000000000000000000000000000000000000000000000000000000011100
A = 0000000000000000000000000000000000000000000000000000000000001001, B = 0000000000000000000000000000000000000000000000000000000000010011, Cin = 1, S = 0, Cout = 0000000000000000000000000000000000000000000000000000000000011101
$finish called at time : 40 ns : File "C:/Users/User/Documents/Projects/SQRT_CLSA/SQRT_CLSA.srcs/sim_1/new/SQRT_CSLA_64bit_tb.v" Line 49
